{
  "02-19-2018": [{
    "name": "JavaScript",
    "communityReady": 1,
    "widelyUsed": "yes",
    "crowdReady": "Y",
    "shouldSell": "N/A",
    "type": "N/A"
  }, {
    "name": "Node.js",
    "communityReady": 1,
    "widelyUsed": "yes",
    "crowdReady": "Y",
    "shouldSell": "N/A",
    "type": "N/A"
  }, {
    "name": "Java",
    "communityReady": 1,
    "widelyUsed": "yes",
    "crowdReady": "Y",
    "shouldSell": "N/A",
    "type": "N/A"
  }, {
    "name": "ReactJS",
    "communityReady": 1,
    "widelyUsed": "yes",
    "crowdReady": "Y",
    "shouldSell": "N/A",
    "type": "N/A"
  }, {
    "name": "CSS",
    "communityReady": 1,
    "widelyUsed": "yes",
    "crowdReady": "Y",
    "shouldSell": "N/A",
    "type": "N/A"
  }, {
    "name": "HTML5",
    "communityReady": 1,
    "widelyUsed": "yes",
    "crowdReady": "Y",
    "shouldSell": "N/A",
    "type": "N/A"
  }, {
    "name": "REST",
    "communityReady": 1,
    "widelyUsed": "yes",
    "crowdReady": "Y",
    "shouldSell": "N/A",
    "type": "N/A"
  }, {
    "name": "Docker",
    "communityReady": 1,
    "widelyUsed": "yes",
    "crowdReady": "Y",
    "shouldSell": "N/A",
    "type": "N/A"
  }, {
    "name": "Angular 2+",
    "communityReady": 1,
    "widelyUsed": "yes",
    "crowdReady": "Y",
    "shouldSell": "N/A",
    "type": "N/A"
  }, {
    "name": "Python",
    "communityReady": 1,
    "widelyUsed": "yes",
    "crowdReady": "Y",
    "shouldSell": "N/A",
    "type": "N/A"
  }, {
    "name": ".NET",
    "communityReady": 1,
    "widelyUsed": "yes",
    "crowdReady": "Y",
    "shouldSell": "N/A",
    "type": "N/A"
  }, {
    "name": "iOS",
    "communityReady": 1,
    "widelyUsed": "yes",
    "crowdReady": "Y",
    "shouldSell": "N/A",
    "type": "N/A"
  }, {
    "name": "HTML",
    "communityReady": 1,
    "widelyUsed": "yes",
    "crowdReady": "Y",
    "shouldSell": "N/A",
    "type": "N/A"
  }, {
    "name": "Angular.js 1.0",
    "communityReady": 1,
    "widelyUsed": "yes",
    "crowdReady": "Y",
    "shouldSell": "N/A",
    "type": "N/A"
  }, {
    "name": "SQL",
    "communityReady": 1,
    "widelyUsed": "yes",
    "crowdReady": "Y",
    "shouldSell": "N/A",
    "type": "N/A"
  }, {
    "name": "Android",
    "communityReady": 1,
    "widelyUsed": "yes",
    "crowdReady": "Y",
    "shouldSell": "N/A",
    "type": "N/A"
  }, {
    "name": "C#",
    "communityReady": 1,
    "widelyUsed": "yes",
    "crowdReady": "Y",
    "shouldSell": "N/A",
    "type": "N/A"
  }, {
    "name": "C++",
    "communityReady": 1,
    "widelyUsed": "yes",
    "crowdReady": "Y",
    "shouldSell": "N/A",
    "type": "N/A"
  }, {
    "name": "Angular.js",
    "communityReady": 1,
    "widelyUsed": "yes",
    "crowdReady": "Y",
    "shouldSell": "N/A",
    "type": "N/A"
  }, {
    "name": "SQL Server",
    "communityReady": 1,
    "widelyUsed": "yes",
    "crowdReady": "Y",
    "shouldSell": "N/A",
    "type": "N/A"
  }, {
    "name": "Swift",
    "communityReady": 1,
    "widelyUsed": "yes",
    "crowdReady": "Y",
    "shouldSell": "N/A",
    "type": "N/A"
  }, {
    "name": "JSON",
    "communityReady": 1,
    "widelyUsed": "yes",
    "crowdReady": "Y",
    "shouldSell": "N/A",
    "type": "N/A"
  }, {
    "name": "MySQL",
    "communityReady": 1,
    "widelyUsed": "yes",
    "crowdReady": "Y",
    "shouldSell": "N/A",
    "type": "N/A"
  }, {
    "name": "Ionic",
    "communityReady": 1,
    "widelyUsed": "yes",
    "crowdReady": "Y",
    "shouldSell": "N/A",
    "type": "N/A"
  }, {
    "name": "Spring",
    "communityReady": 1,
    "widelyUsed": "yes",
    "crowdReady": "Y",
    "shouldSell": "N/A",
    "type": "N/A"
  }, {
    "name": "MongoDB",
    "communityReady": 1,
    "widelyUsed": "yes",
    "crowdReady": "Y",
    "shouldSell": "N/A",
    "type": "N/A"
  }, {
    "name": "Elasticsearch",
    "communityReady": 1,
    "widelyUsed": "yes",
    "crowdReady": "Y",
    "shouldSell": "N/A",
    "type": "N/A"
  }, {
    "name": "Express",
    "communityReady": 1,
    "widelyUsed": "yes",
    "crowdReady": "Y",
    "shouldSell": "N/A",
    "type": "N/A"
  }, {
    "name": "Linux",
    "communityReady": 1,
    "widelyUsed": "yes",
    "crowdReady": "Y",
    "shouldSell": "N/A",
    "type": "N/A"
  }, {
    "name": "API",
    "communityReady": 1,
    "widelyUsed": "yes",
    "crowdReady": "Y",
    "shouldSell": "N/A",
    "type": "N/A"
  }, {
    "name": "Data Science",
    "communityReady": 1,
    "widelyUsed": "yes",
    "crowdReady": "Y",
    "shouldSell": "N/A",
    "type": "N/A"
  }, {
    "name": "Oracle 10g",
    "communityReady": 1,
    "widelyUsed": "yes",
    "crowdReady": "Y",
    "shouldSell": "N/A",
    "type": "N/A"
  }, {
    "name": "IBM Watson",
    "communityReady": 1,
    "widelyUsed": "yes",
    "crowdReady": "Y",
    "shouldSell": "N/A",
    "type": "N/A"
  }, {
    "name": "C",
    "communityReady": 1,
    "widelyUsed": "yes",
    "crowdReady": "Y",
    "shouldSell": "N/A",
    "type": "N/A"
  }, {
    "name": "Bootstrap",
    "communityReady": 1,
    "widelyUsed": "yes",
    "crowdReady": "Y",
    "shouldSell": "N/A",
    "type": "N/A"
  }, {
    "name": "Cognitive",
    "communityReady": 1,
    "widelyUsed": "yes",
    "crowdReady": "Y",
    "shouldSell": "N/A",
    "type": "N/A"
  }, {
    "name": "IBM Bluemix",
    "communityReady": 1,
    "widelyUsed": "yes",
    "crowdReady": "Y",
    "shouldSell": "N/A",
    "type": "N/A"
  }, {
    "name": "Web Services",
    "communityReady": 1,
    "widelyUsed": "yes",
    "crowdReady": "Y",
    "shouldSell": "N/A",
    "type": "N/A"
  }, {
    "name": "J2EE",
    "communityReady": 1,
    "widelyUsed": "yes",
    "crowdReady": "Y",
    "shouldSell": "N/A",
    "type": "N/A"
  }, {
    "name": "Active Directory",
    "communityReady": 1,
    "widelyUsed": "yes",
    "crowdReady": "Y",
    "shouldSell": "N/A",
    "type": "N/A"
  }, {
    "name": "IBM Cognitive",
    "communityReady": 1,
    "widelyUsed": "yes",
    "crowdReady": "Y",
    "shouldSell": "N/A",
    "type": "N/A"
  }, {
    "name": "PostgreSQL",
    "communityReady": 1,
    "widelyUsed": "yes",
    "crowdReady": "Y",
    "shouldSell": "N/A",
    "type": "N/A"
  }, {
    "name": "Lightning",
    "communityReady": 1,
    "widelyUsed": "yes",
    "crowdReady": "Y",
    "shouldSell": "N/A",
    "type": "N/A"
  }, {
    "name": "Maven",
    "communityReady": 1,
    "widelyUsed": "yes",
    "crowdReady": "Y",
    "shouldSell": "N/A",
    "type": "N/A"
  }, {
    "name": "ASP.NET",
    "communityReady": 1,
    "widelyUsed": "yes",
    "crowdReady": "Y",
    "shouldSell": "N/A",
    "type": "N/A"
  }, {
    "name": "AWS",
    "communityReady": 1,
    "widelyUsed": "yes",
    "crowdReady": "Y",
    "shouldSell": "N/A",
    "type": "N/A"
  }, {
    "name": "Sharepoint 3.0",
    "communityReady": 1,
    "widelyUsed": "yes",
    "crowdReady": "Y",
    "shouldSell": "N/A",
    "type": "N/A"
  }, {
    "name": "SAP",
    "communityReady": 1,
    "widelyUsed": "yes",
    "crowdReady": "Y",
    "shouldSell": "N/A",
    "type": "N/A"
  }, {
    "name": "PHP",
    "communityReady": 1,
    "widelyUsed": "yes",
    "crowdReady": "Y",
    "shouldSell": "N/A",
    "type": "N/A"
  }, {
    "name": "Jquery",
    "communityReady": 1,
    "widelyUsed": "no",
    "crowdReady": "Y",
    "shouldSell": "N/A",
    "type": "N/A"
  }, {
    "name": "Ruby On Rails",
    "communityReady": 1,
    "widelyUsed": "no",
    "crowdReady": "Y",
    "shouldSell": "N/A",
    "type": "N/A"
  }, {
    "name": "Objective C",
    "communityReady": 1,
    "widelyUsed": "no",
    "crowdReady": "Y",
    "shouldSell": "N/A",
    "type": "N/A"
  }, {
    "name": "Arrays",
    "communityReady": 1,
    "widelyUsed": "no",
    "crowdReady": "Y",
    "shouldSell": "N/A",
    "type": "N/A"
  }, {
    "name": "Json",
    "communityReady": 2,
    "widelyUsed": "no",
    "crowdReady": "Y",
    "shouldSell": "N/A",
    "type": "N/A"
  }, {
    "name": "Sql Server",
    "communityReady": 2,
    "widelyUsed": "no",
    "crowdReady": "Y",
    "shouldSell": "N/A",
    "type": "N/A"
  }, {
    "name": "R",
    "communityReady": 2,
    "widelyUsed": "no",
    "crowdReady": "Y",
    "shouldSell": "N/A",
    "type": "N/A"
  }, {
    "name": "Iphone",
    "communityReady": 2,
    "widelyUsed": "no",
    "crowdReady": "Y",
    "shouldSell": "N/A",
    "type": "N/A"
  }, {
    "name": "Ruby",
    "communityReady": 2,
    "widelyUsed": "no",
    "crowdReady": "Y",
    "shouldSell": "N/A",
    "type": "N/A"
  }, {
    "name": "Ajax",
    "communityReady": 2,
    "widelyUsed": "no",
    "crowdReady": "Y",
    "shouldSell": "N/A",
    "type": "N/A"
  }, {
    "name": "Regex",
    "communityReady": 2,
    "widelyUsed": "no",
    "crowdReady": "Y",
    "shouldSell": "N/A",
    "type": "N/A"
  }, {
    "name": "Xml",
    "communityReady": 2,
    "widelyUsed": "no",
    "crowdReady": "Y",
    "shouldSell": "N/A",
    "type": "N/A"
  }, {
    "name": "Asp.net Mvc",
    "communityReady": 2,
    "widelyUsed": "no",
    "crowdReady": "Y",
    "shouldSell": "N/A",
    "type": "N/A"
  }, {
    "name": "Django",
    "communityReady": 2,
    "widelyUsed": "no",
    "crowdReady": "Y",
    "shouldSell": "N/A",
    "type": "N/A"
  }, {
    "name": "Database",
    "communityReady": 2,
    "widelyUsed": "no",
    "crowdReady": "Y",
    "shouldSell": "N/A",
    "type": "N/A"
  }, {
    "name": "Excel",
    "communityReady": 2,
    "widelyUsed": "no",
    "crowdReady": "Y",
    "shouldSell": "N/A",
    "type": "N/A"
  }, {
    "name": "Wpf",
    "communityReady": 2,
    "widelyUsed": "no",
    "crowdReady": "Y",
    "shouldSell": "N/A",
    "type": "N/A"
  }, {
    "name": "Wordpress",
    "communityReady": 2,
    "widelyUsed": "no",
    "crowdReady": "Y",
    "shouldSell": "N/A",
    "type": "N/A"
  }, {
    "name": "String",
    "communityReady": 2,
    "widelyUsed": "no",
    "crowdReady": "Y",
    "shouldSell": "N/A",
    "type": "N/A"
  }, {
    "name": "Xcode",
    "communityReady": 2,
    "widelyUsed": "no",
    "crowdReady": "Y",
    "shouldSell": "N/A",
    "type": "N/A"
  }, {
    "name": "Windows",
    "communityReady": 3,
    "widelyUsed": "no",
    "crowdReady": "Y",
    "shouldSell": "N/A",
    "type": "N/A"
  }, {
    "name": "Vb.net",
    "communityReady": 3,
    "widelyUsed": "no",
    "crowdReady": "Y",
    "shouldSell": "N/A",
    "type": "N/A"
  }, {
    "name": "Eclipse",
    "communityReady": 3,
    "widelyUsed": "no",
    "crowdReady": "Y",
    "shouldSell": "N/A",
    "type": "N/A"
  }, {
    "name": "Html5",
    "communityReady": 3,
    "widelyUsed": "no",
    "crowdReady": "Y",
    "shouldSell": "N/A",
    "type": "N/A"
  }, {
    "name": "Multithreading",
    "communityReady": 3,
    "widelyUsed": "no",
    "crowdReady": "Y",
    "shouldSell": "N/A",
    "type": "N/A"
  }, {
    "name": "Angular",
    "communityReady": 3,
    "widelyUsed": "no",
    "crowdReady": "Y",
    "shouldSell": "N/A",
    "type": "N/A"
  }, {
    "name": "Bash",
    "communityReady": 3,
    "widelyUsed": "no",
    "crowdReady": "Y",
    "shouldSell": "N/A",
    "type": "N/A"
  }, {
    "name": "Git",
    "communityReady": 3,
    "widelyUsed": "no",
    "crowdReady": "Y",
    "shouldSell": "N/A",
    "type": "N/A"
  }, {
    "name": "Mongodb",
    "communityReady": 3,
    "widelyUsed": "no",
    "crowdReady": "Y",
    "shouldSell": "N/A",
    "type": "N/A"
  }, {
    "name": "Vba",
    "communityReady": 3,
    "widelyUsed": "no",
    "crowdReady": "Y",
    "shouldSell": "N/A",
    "type": "N/A"
  }, {
    "name": "Oracle",
    "communityReady": 3,
    "widelyUsed": "no",
    "crowdReady": "Y",
    "shouldSell": "N/A",
    "type": "N/A"
  }, {
    "name": "Twitter Bootstrap",
    "communityReady": 3,
    "widelyUsed": "no",
    "crowdReady": "Y",
    "shouldSell": "N/A",
    "type": "N/A"
  }, {
    "name": "Python 3.x",
    "communityReady": 3,
    "widelyUsed": "no",
    "crowdReady": "Y",
    "shouldSell": "N/A",
    "type": "N/A"
  }, {
    "name": "Forms",
    "communityReady": 3,
    "widelyUsed": "no",
    "crowdReady": "Y",
    "shouldSell": "N/A",
    "type": "N/A"
  }, {
    "name": "Image",
    "communityReady": 3,
    "widelyUsed": "no",
    "crowdReady": "Y",
    "shouldSell": "N/A",
    "type": "N/A"
  }, {
    "name": "Macos",
    "communityReady": 3,
    "widelyUsed": "no",
    "crowdReady": "Y",
    "shouldSell": "N/A",
    "type": "N/A"
  }, {
    "name": "Algorithm",
    "communityReady": 3,
    "widelyUsed": "no",
    "crowdReady": "Y",
    "shouldSell": "N/A",
    "type": "N/A"
  }, {
    "name": "Facebook",
    "communityReady": 3,
    "widelyUsed": "no",
    "crowdReady": "Y",
    "shouldSell": "N/A",
    "type": "N/A"
  }, {
    "name": "Laravel",
    "communityReady": 3,
    "widelyUsed": "no",
    "crowdReady": "Y",
    "shouldSell": "N/A",
    "type": "N/A"
  }, {
    "name": "Postgresql",
    "communityReady": 3,
    "widelyUsed": "no",
    "crowdReady": "Y",
    "shouldSell": "N/A",
    "type": "N/A"
  }, {
    "name": "Python 2.7",
    "communityReady": 4,
    "widelyUsed": "no",
    "crowdReady": "N",
    "shouldSell": "N/A",
    "type": "N/A"
  }, {
    "name": "Winforms",
    "communityReady": 4,
    "widelyUsed": "no",
    "crowdReady": "N",
    "shouldSell": "N/A",
    "type": "N/A"
  }, {
    "name": "Apache",
    "communityReady": 4,
    "widelyUsed": "no",
    "crowdReady": "N",
    "shouldSell": "N/A",
    "type": "N/A"
  }, {
    "name": "Matlab",
    "communityReady": 4,
    "widelyUsed": "no",
    "crowdReady": "N",
    "shouldSell": "N/A",
    "type": "N/A"
  }, {
    "name": "Visual Studio",
    "communityReady": 4,
    "widelyUsed": "no",
    "crowdReady": "N",
    "shouldSell": "N/A",
    "type": "N/A"
  }, {
    "name": "Scala",
    "communityReady": 4,
    "widelyUsed": "no",
    "crowdReady": "N",
    "shouldSell": "N/A",
    "type": "N/A"
  }, {
    "name": "Performance",
    "communityReady": 4,
    "widelyUsed": "no",
    "crowdReady": "N",
    "shouldSell": "N/A",
    "type": "N/A"
  }, {
    "name": "Excel Vba",
    "communityReady": 4,
    "widelyUsed": "no",
    "crowdReady": "N",
    "shouldSell": "N/A",
    "type": "N/A"
  }, {
    "name": "Entity Framework",
    "communityReady": 4,
    "widelyUsed": "no",
    "crowdReady": "N",
    "shouldSell": "N/A",
    "type": "N/A"
  }, {
    "name": "List",
    "communityReady": 4,
    "widelyUsed": "no",
    "crowdReady": "N",
    "shouldSell": "N/A",
    "type": "N/A"
  }, {
    "name": "Reactjs",
    "communityReady": 4,
    "widelyUsed": "no",
    "crowdReady": "N",
    "shouldSell": "N/A",
    "type": "N/A"
  }, {
    "name": "Css3",
    "communityReady": 4,
    "widelyUsed": "no",
    "crowdReady": "N",
    "shouldSell": "N/A",
    "type": "N/A"
  }, {
    "name": "Swing",
    "communityReady": 4,
    "widelyUsed": "no",
    "crowdReady": "N",
    "shouldSell": "N/A",
    "type": "N/A"
  }, {
    "name": "Hibernate",
    "communityReady": 4,
    "widelyUsed": "no",
    "crowdReady": "N",
    "shouldSell": "N/A",
    "type": "N/A"
  }, {
    "name": "Linq",
    "communityReady": 4,
    "widelyUsed": "no",
    "crowdReady": "N",
    "shouldSell": "N/A",
    "type": "N/A"
  }, {
    "name": "Qt",
    "communityReady": 4,
    "widelyUsed": "no",
    "crowdReady": "N",
    "shouldSell": "N/A",
    "type": "N/A"
  }, {
    "name": "Function",
    "communityReady": 4,
    "widelyUsed": "no",
    "crowdReady": "N",
    "shouldSell": "N/A",
    "type": "N/A"
  }, {
    "name": "Shell",
    "communityReady": 4,
    "widelyUsed": "no",
    "crowdReady": "N",
    "shouldSell": "N/A",
    "type": "N/A"
  }, {
    "name": "Pandas",
    "communityReady": 4,
    "widelyUsed": "no",
    "crowdReady": "N",
    "shouldSell": "N/A",
    "type": "N/A"
  }, {
    "name": ".Htaccess",
    "communityReady": 4,
    "widelyUsed": "no",
    "crowdReady": "N",
    "shouldSell": "N/A",
    "type": "N/A"
  }, {
    "name": "Rest",
    "communityReady": 5,
    "widelyUsed": "no",
    "crowdReady": "N",
    "shouldSell": "N/A",
    "type": "N/A"
  }, {
    "name": "Api",
    "communityReady": 5,
    "widelyUsed": "no",
    "crowdReady": "N",
    "shouldSell": "N/A",
    "type": "N/A"
  }, {
    "name": "Sqlite",
    "communityReady": 5,
    "widelyUsed": "no",
    "crowdReady": "N",
    "shouldSell": "N/A",
    "type": "N/A"
  }, {
    "name": "Perl",
    "communityReady": 5,
    "widelyUsed": "no",
    "crowdReady": "N",
    "shouldSell": "N/A",
    "type": "N/A"
  }, {
    "name": "Codeigniter",
    "communityReady": 5,
    "widelyUsed": "no",
    "crowdReady": "N",
    "shouldSell": "N/A",
    "type": "N/A"
  }, {
    "name": "File",
    "communityReady": 5,
    "widelyUsed": "no",
    "crowdReady": "N",
    "shouldSell": "N/A",
    "type": "N/A"
  }, {
    "name": "Google Maps",
    "communityReady": 5,
    "widelyUsed": "no",
    "crowdReady": "N",
    "shouldSell": "N/A",
    "type": "N/A"
  }, {
    "name": "Uitableview",
    "communityReady": 5,
    "widelyUsed": "no",
    "crowdReady": "N",
    "shouldSell": "N/A",
    "type": "N/A"
  }, {
    "name": "Cordova",
    "communityReady": 5,
    "widelyUsed": "no",
    "crowdReady": "N",
    "shouldSell": "N/A",
    "type": "N/A"
  }, {
    "name": "Ruby On Rails 3",
    "communityReady": 5,
    "widelyUsed": "no",
    "crowdReady": "N",
    "shouldSell": "N/A",
    "type": "N/A"
  }, {
    "name": "Unit Testing",
    "communityReady": 5,
    "widelyUsed": "no",
    "crowdReady": "N",
    "shouldSell": "N/A",
    "type": "N/A"
  }, {
    "name": "Symfony",
    "communityReady": 5,
    "widelyUsed": "no",
    "crowdReady": "N",
    "shouldSell": "N/A",
    "type": "N/A"
  }, {
    "name": "Powershell",
    "communityReady": 5,
    "widelyUsed": "no",
    "crowdReady": "N",
    "shouldSell": "N/A",
    "type": "N/A"
  }, {
    "name": "Amazon Web Services",
    "communityReady": 5,
    "widelyUsed": "no",
    "crowdReady": "N",
    "shouldSell": "N/A",
    "type": "N/A"
  }, {
    "name": "Loops",
    "communityReady": 5,
    "widelyUsed": "no",
    "crowdReady": "N",
    "shouldSell": "N/A",
    "type": "N/A"
  }, {
    "name": "Class",
    "communityReady": 5,
    "widelyUsed": "no",
    "crowdReady": "N",
    "shouldSell": "N/A",
    "type": "N/A"
  }, {
    "name": "Azure",
    "communityReady": 5,
    "widelyUsed": "no",
    "crowdReady": "N",
    "shouldSell": "N/A",
    "type": "N/A"
  }, {
    "name": "Csv",
    "communityReady": 5,
    "widelyUsed": "no",
    "crowdReady": "N",
    "shouldSell": "N/A",
    "type": "N/A"
  }]
}
